# This file uses centimeters as units for non-parametric coordinates.

mtllib platform3x1u.mtl
g default
v 0.000000 0.000000 0.000000
v 3.000000 0.000000 0.000000
v 0.000000 1.000000 0.000000
v 3.000000 1.000000 0.000000
v 0.000000 1.000000 -1.000000
v 3.000000 1.000000 -1.000000
v 0.000000 0.000000 -1.000000
v 3.000000 0.000000 -1.000000
vt 0.001992 0.685373
vt 0.001992 0.001831
vt 0.229839 0.001831
vt 0.229839 0.685373
vt 0.236061 0.685373
vt 0.236061 0.001831
vt 0.463909 0.001831
vt 0.463909 0.685373
vt 0.471884 0.685373
vt 0.471884 0.001831
vt 0.699732 0.001831
vt 0.699732 0.685373
vt 0.707708 0.685373
vt 0.707708 0.001831
vt 0.935555 0.001831
vt 0.935555 0.685373
vt 0.770161 0.689364
vt 0.998008 0.689364
vt 0.998008 0.917212
vt 0.770161 0.917212
vt 0.536178 0.689364
vt 0.764025 0.689364
vt 0.764025 0.917212
vt 0.536178 0.917212
vn 0.000000 0.000000 1.000000
vn 0.000000 0.000000 1.000000
vn 0.000000 0.000000 1.000000
vn 0.000000 0.000000 1.000000
vn 0.000000 1.000000 0.000000
vn 0.000000 1.000000 0.000000
vn 0.000000 1.000000 0.000000
vn 0.000000 1.000000 0.000000
vn 0.000000 0.000000 -1.000000
vn 0.000000 0.000000 -1.000000
vn 0.000000 0.000000 -1.000000
vn 0.000000 0.000000 -1.000000
vn 0.000000 -1.000000 0.000000
vn 0.000000 -1.000000 0.000000
vn 0.000000 -1.000000 0.000000
vn 0.000000 -1.000000 0.000000
vn 1.000000 0.000000 0.000000
vn 1.000000 0.000000 0.000000
vn 1.000000 0.000000 0.000000
vn 1.000000 0.000000 0.000000
vn -1.000000 0.000000 0.000000
vn -1.000000 0.000000 0.000000
vn -1.000000 0.000000 0.000000
vn -1.000000 0.000000 0.000000
s off
g platform3x1u
usemtl lambert2SG
f 1/1/1 2/2/2 4/3/3 3/4/4
f 3/5/5 4/6/6 6/7/7 5/8/8
f 5/9/9 6/10/10 8/11/11 7/12/12
f 7/13/13 8/14/14 2/15/15 1/16/16
f 2/17/17 8/18/18 6/19/19 4/20/20
f 7/21/21 1/22/22 3/23/23 5/24/24
